<?xml version="1.0" encoding="utf-8"?>
<!-- Generator: Adobe Illustrator 18.1.1, SVG Export Plug-In . SVG Version: 6.00 Build 0)  -->
<svg version="1.1" id="Слой_1" xmlns="http://www.w3.org/2000/svg" xmlns:xlink="http://www.w3.org/1999/xlink" x="0px" y="0px"
	 viewBox="0 0 108 99" width="108" height="99" enable-background="new 0 0 108 99" xml:space="preserve">
<rect x="18.9" y="50.2" fill="none" width="28" height="28.2"/>
<path fill="#FFCD05" d="M0.3,25.9"/>
<path fill="#7290C9" d="M45.6,40.5"/>
<path fill="#7290C9" d="M49.7,57.4H27.2c-1.7,0-3.1-1.4-3.1-3.1v0c0-1.7,1.4-3.1,3.1-3.1h22.5c1.7,0,3.1,1.4,3.1,3.1v0
	C52.8,56,51.4,57.4,49.7,57.4z"/>
<path fill="#7290C9" d="M80.6,45.4H27.2c-1.7,0-3.1-1.4-3.1-3.1v0c0-1.7,1.4-3.1,3.1-3.1h53.4c1.7,0,3.1,1.4,3.1,3.1v0
	C83.6,44,82.2,45.4,80.6,45.4z"/>
<path fill="#7290C9" d="M90,25.4H20.6c-3.3,0-6,2.7-6,6v47c0,3.3,2.7,6,6,6h41.3V79H21.3c-1.1,0-2-0.9-2-2V32.5c0-1.1,0.9-2,2-2
	h66.9c1.1,0,2,0.9,2,2V77c0,1.1-0.9,2-2,2h-2.9v5.4H90c3.3,0,6-2.7,6-6v-47C96,28.1,93.3,25.4,90,25.4z"/>
<circle fill="#FFC937" cx="72.8" cy="68" r="11.9"/>
<path fill="#FFC937" d="M73.5,83.9c-2.7,0-5.1-0.7-7.3-1.8v15.6l7-7.5l7,7.6V82.4C78.1,83.4,75.9,83.9,73.5,83.9z"/>
</svg>
