<?xml version="1.0" encoding="utf-8"?>
<!-- Generator: Adobe Illustrator 18.1.1, SVG Export Plug-In . SVG Version: 6.00 Build 0)  -->
<svg version="1.1" id="Слой_1" xmlns="http://www.w3.org/2000/svg" xmlns:xlink="http://www.w3.org/1999/xlink" x="0px" y="0px"
	 viewBox="0 0 108 99" width="108" height="99" enable-background="new 0 0 108 99" xml:space="preserve">
<path fill="#7290C9" d="M33.6,32.9c-17,0-30.8,13.7-30.8,30.7s13.7,30.7,30.7,30.7s30.7-13.7,30.7-30.7S50.5,32.9,33.6,32.9z
	 M33.6,88.4c-13.8,0-24.9-11.2-24.9-24.9s11.1-24.9,24.9-24.9s24.9,11.2,24.9,24.9S47.3,88.4,33.6,88.4z"/>
<path fill="#7290C9" d="M21.3,62.7h3v-12h8.5c3.2,0,5.3,0.1,6.3,0.4c3,0.7,5.3,3.5,5.3,7.6c0,4.8-3.1,7.3-5.8,7.9
	c-1.2,0.2-3.1,0.4-5.4,0.4h-3.5v2.2h13.6v4.4H29.7v3.2h-5.3v-3.2h-3v-4.4h3V67h-3v-4.3H21.3z M29.7,55.2v7.4h2.8
	c2.1,0,3.5-0.1,4.2-0.4c1.4-0.5,2.2-1.8,2.2-3.3c0-1.8-1.2-3.2-3-3.5c-0.6-0.1-1.8-0.2-3.8-0.2H29.7z"/>
<path fill="#FFCD05" d="M54.7,27.1v8c0.9,0.6,1.7,1.4,2.5,2h47.1v-10H54.7L54.7,27.1z"/>
<path fill="#FFCD05" d="M64.8,45.2c2,3.1,3.6,6.4,4.6,10h35.1v-10H64.8z"/>
<path fill="#FFCD05" d="M70.8,63c0,0.7,0,1.4,0,2c0,2.7-0.2,5.3-0.9,7.9h34.4v-10L70.8,63L70.8,63z"/>
</svg>
