<?xml version="1.0" encoding="utf-8"?>
<!-- Generator: Adobe Illustrator 19.0.1, SVG Export Plug-In . SVG Version: 6.00 Build 0)  -->
<svg version="1.1" id="Слой_1" xmlns="http://www.w3.org/2000/svg" xmlns:xlink="http://www.w3.org/1999/xlink" x="0px" y="0px"
	 viewBox="0 0 497 440" style="enable-background:new 0 0 497 440;" xml:space="preserve">
<style type="text/css">
	.st0{fill:#FFC937;}
	.st1{fill:#3366CC;}
	.st2{fill:#FFFFFF;}
	.st3{fill:none;}
	.st4{fill:#7290C9;}
	.st5{font-family:'Arial-BoldMT';}
	.st6{font-size:16px;}
	.st7{font-family:'ArialMT';}
	.st8{font-size:14px;}
	.st9{fill:#FFFFFF;stroke:#3366CC;stroke-miterlimit:10;}
</style>
<g>
	<path class="st0" d="M494,43v82H352h-1l-0.8,0.6L328,142.9V128v-3h-3h-41V43H494 M497,40H281v88h44v21l27-21h145V40L497,40z"/>
</g>
<g>
	<path class="st1" d="M478,300v64h-94h-0.3l-0.3,0.2L366,377.9V365v-1h-1h-30v-64H478 M479,299H334v66h31v15l19-15h95V299L479,299z"
		/>
</g>
<g>
	<polygon class="st2" points="133.5,66.5 102.5,66.5 102.5,0.5 246.5,0.5 246.5,66.5 151.8,66.5 133.5,81 	"/>
	<path class="st1" d="M246,1v65h-94h-0.3l-0.3,0.2L134,79.9V67v-1h-1h-30V1H246 M247,0H102v67h31v15l19-15h95V0L247,0z"/>
</g>
<rect x="297" y="70" class="st3" width="192" height="37"/>
<text transform="matrix(1 0 0 1 318.6436 81.4561)"><tspan x="0" y="0" class="st4 st5 st6">Перевезу и помогу </tspan><tspan x="-17.9" y="16.5" class="st4 st5 st6">разгрузить за 1500 руб.</tspan></text>
<rect x="108.7" y="20" class="st3" width="134" height="35"/>
<text transform="matrix(1 0 0 1 135.7612 30.0239)"><tspan x="0" y="0" class="st1 st7 st8">Возьмусь за </tspan><tspan x="7.1" y="16.8" class="st1 st7 st8">1 600 руб.</tspan></text>
<rect x="339" y="319" class="st3" width="134" height="36"/>
<text transform="matrix(1 0 0 1 375.0015 329.0239)"><tspan x="0" y="0" class="st1 st7 st8">Перевезу </tspan><tspan x="-10.8" y="16.8" class="st1 st7 st8">за 2 200 руб.</tspan></text>
<g>
	<g>
		<path class="st2" d="M192.5,397.5c-0.3-8.8-8.1-15.9-17.7-15.9c-9.1,0-16.6,7-17.3,15.9h-2.9l4.8-31h31.3l-4.8-12.2
			c-1.7-3.8-4.4-5.8-8-5.8h-15.4l1.8-8H185c3.5,0,5.3,1,7.2,4l10.9,22.5l0.2,0.1c1.1,0.4,1.8,1.2,1.8,2l-5.8,26.3
			c-0.8,1.5-1.4,2.1-3.3,2.1H192.5z"/>
		<path class="st1" d="M185,341c3.3,0,5,0.9,6.8,3.7l10.8,22.3l0.2,0.4l0.4,0.1c0.9,0.3,1.4,0.9,1.5,1.5l-5.8,26.2
			c-0.7,1.3-1.2,1.7-2.8,1.8h-3c-0.6-8.9-8.5-15.9-18.2-15.9c-9.2,0-16.8,6.9-17.7,15.9h-1.9l4.7-30H190h1.5l-0.5-1.4l-4.5-11.6
			c-1.8-4-4.6-6-8.4-6h-14.8l1.6-7H185 M185,340h-21l-2,9c5.9,0,16,0,16,0c4,0,6.2,2.4,7.5,5.4L190,366h-31l-5,32h4
			c0.4-8.8,7.6-15.9,16.8-15.9S192,389,192,398h4c2.1,0,2.9-0.7,3.7-2.4l5.9-26.5c0-1.1-0.9-2.1-2.2-2.6l-10.8-22.4
			C190.7,341.1,188.7,340,185,340L185,340z"/>
	</g>
	<g>
		<path class="st2" d="M93.4,397.5c-1.3-8.4-9-14.6-18-14.6c-8.6,0-15.9,6.1-17.5,14.5l-0.1,0c-19-3.5-20.4-5.9-20.4-6.5l10-62.3
			c0-3.9,2.7-7.1,5.9-7.1h95.9c3.1,0,5.7,3.1,5.7,7l-10,62.3c0,3.7-2.7,6.7-6,6.7H93.4z"/>
		<path class="st1" d="M149.3,322c2.8,0,5.1,2.9,5.2,6.4l-10,62.3l0,0.1v0.1c0,3.4-2.4,6.1-5.5,6.1H93.9
			c-1.6-8.4-9.3-14.6-18.4-14.6c-8.7,0-16.1,6-17.9,14.4c-18-3.4-19.5-5.6-19.6-5.9l10-62.3l0-0.1v-0.1c0-3.5,2.5-6.5,5.4-6.5H149.3
			 M149.3,321H53.4c-3.4,0-6.4,3.4-6.4,7.5l-10,62.4c0,3.3,18.1,6.5,21.4,7.1c1.3-8.3,8.4-14.6,17.1-14.6c8.8,0,16.4,6.2,17.5,14.6
			h46c3.4,0,6.5-3,6.5-7.1l10-62.4C155.5,324.4,152.7,321,149.3,321L149.3,321z"/>
	</g>
	<circle class="st9" cx="76" cy="400" r="11"/>
	<circle class="st9" cx="175" cy="400" r="11"/>
</g>
<g>
	<g>
		<path class="st2" d="M92.5,253.5c-0.3-5.1-5.2-9.3-10.9-9.3c-5.3,0-9.6,4-10.1,9.3h-1.9l2.8-18h18.3l-2.4-7.1l0-0.1
			c-0.8-1.8-1.7-3.8-4.3-3.8h-9.4l0.8-4H88c1.9,0,2.5,0.6,3.6,2.3l6.4,13.2l0.2,0.1c0.6,0.2,0.9,0.6,0.9,1l-2.6,14.8
			c-0.3,1.3-0.7,1.6-1.5,1.6H92.5z"/>
		<path class="st1" d="M88,221c1.6,0,2.1,0.4,3.1,2.1l6.3,13l0.2,0.4l0.4,0.1c0.3,0.1,0.5,0.3,0.6,0.5L96,251.8
			c-0.3,1.2-0.5,1.2-1,1.2h-2.1c-0.6-5.1-5.6-9.3-11.4-9.3c-5.4,0-9.8,3.9-10.5,9.3h-0.9l2.7-17H90h1.4l-0.4-1.3l-2.2-6.4l0,0l0,0
			l0-0.1c-0.8-1.8-1.8-4.1-4.7-4.1h-8.8l0.6-3H88 M88,220H75l-1,5c3.5,0,10,0,10,0c2.3,0,3.1,1.8,3.8,3.6L90,235H72l-3,19h3
			c0.3-5.1,4.2-9.3,9.6-9.3c5.4,0,10.4,4,10.4,9.3h3c1.2,0,1.7-0.6,2-2l2.6-14.9c0-0.7-0.5-1.2-1.3-1.5L92,222.6
			C90.9,220.7,90.2,220,88,220L88,220z"/>
	</g>
	<g>
		<path class="st2" d="M34.4,253.5c-0.9-4.8-5.6-8.5-10.9-8.5c-5.1,0-9.4,3.5-10.4,8.4c-11.3-2.1-11.6-3.4-11.6-3.6l5.8-36.4
			c0-2.2,1.5-4,3.2-4h56.1c1.7,0,3.1,1.7,3.1,3.9l-5.8,36.4c0,2.2-1.2,3.7-2.9,3.7H34.4z"/>
		<path class="st1" d="M66.7,210c1.4,0,2.6,1.5,2.6,3.3l-5.8,36.4l0,0.1v0.1c0,1.8-1,3.1-2.4,3.1H34.8c-1.1-4.8-5.9-8.5-11.3-8.5
			c-5.2,0-9.5,3.5-10.8,8.4c-8.6-1.6-10.3-2.7-10.7-3.1l5.8-36.2l0-0.1v-0.1c0-1.8,1.3-3.4,2.7-3.4H66.7 M66.7,209H10.6
			c-2,0-3.7,2-3.7,4.4L1,249.9c0,1.9,10.6,3.8,12.5,4.2c0.8-4.8,4.9-8.5,10-8.5c5.1,0,9.8,3.6,10.5,8.5h27c2,0,3.4-1.7,3.4-4.1
			l5.8-36.5C70.3,211,68.6,209,66.7,209L66.7,209z"/>
	</g>
	<circle class="st9" cx="23.8" cy="255.2" r="6.4"/>
	<circle class="st9" cx="81.7" cy="255.2" r="6.4"/>
</g>
<g>
	<g>
		<path class="st2" d="M355.5,428.5c-0.3-6.8-7-10.8-13.4-10.8c-6.8,0-12,4.5-12.5,10.8h-1.9l3.8-21h22.3l-3.5-9.3
			c-1-2.2-2-4.7-5.2-4.7h-11.4l0.8-5H350c2.4,0,3.1,0.6,4.5,2.8l7.8,16.2l0.2,0.1c0.7,0.3,1.2,0.8,1.2,1.4l-3.2,18
			c-0.6,1.2-1.3,1.6-2.5,1.7H355.5z"/>
		<path class="st1" d="M350,389c2.2,0,2.8,0.5,4,2.5l7.7,16l0.2,0.4l0.4,0.1c0.5,0.2,0.8,0.5,0.9,0.8l-3.2,17.9
			c-0.5,0.9-1.1,1.3-2,1.3h-2c-0.6-6.8-7.4-10.8-13.9-10.8c-6.9,0-12.2,4.5-13,10.8h-0.9l3.6-20H353h1.4l-0.5-1.3l-3.2-8.7l0,0l0,0
			c-1-2.2-2.2-4.9-5.7-4.9h-10.8l0.7-4H350 M350,388h-16l-1,6c4.3,0,12,0,12,0c2.9,0,3.8,2.2,4.8,4.3l3.2,8.7h-22l-4,22h3
			c0.3-6.3,5.4-10.8,12.1-10.8S355,422.6,355,429h3c1.5,0,2.4-0.8,3-2l3.2-18.1c0-0.8-0.6-1.5-1.6-1.8l-7.8-16.1
			C353.5,388.7,352.7,388,350,388L350,388z"/>
	</g>
	<g>
		<path class="st2" d="M284.4,428.5c-1-6-6.6-10.5-13-10.5c-6.2,0-11.5,4.3-12.7,10.4c-13.8-2.6-14.5-4.2-14.5-4.5l7.2-44.8
			c0-2.8,1.4-4.6,3.6-4.6h70c2.1,0,3.4,1.7,3.4,4.5l-7.2,44.8c0,2.6-1.9,4.7-4.2,4.7H284.4z"/>
		<path class="st1" d="M325,375c2.1,0,2.9,2,2.9,3.9l-7.2,44.8l0,0.1v0.1c0,2.3-1.6,4.1-3.6,4.1h-32.2c-1.3-6-6.9-10.5-13.4-10.5
			c-6.3,0-11.6,4.3-13.1,10.3c-11.4-2.1-13.3-3.6-13.6-4l7.2-44.6l0-0.1V379c0-2.4,1.2-4,3.1-4H325 M325,374h-70
			c-2.4,0-4.1,2.1-4.1,5l-7.2,44.9c0,2.4,13,4.7,15.4,5.1c0.9-5.9,6.1-10.5,12.3-10.5c6.3,0,11.8,4.4,12.6,10.5h33.1
			c2.4,0,4.6-2.2,4.6-5.1l7.2-44.9C328.9,376.1,327.4,374,325,374L325,374z"/>
	</g>
	<circle class="st9" cx="271" cy="431.1" r="7.9"/>
	<circle class="st9" cx="342.2" cy="431.1" r="7.9"/>
</g>
<g>
	<g>
		<path class="st2" d="M142.1,143.4c-0.3-7.2-6.7-13-14.5-13c-7.4,0-13.6,5.7-14.2,13h-2.2l4.3-24.9h25.3l-3.9-10.4
			c-1.3-3-3.7-4.6-6.8-4.6h-12.4l1.8-7H136c2.8,0,4.2,1.3,5.7,3.7l8.9,18.4l0.2,0.1c0.8,0.3,1.4,0.9,1.4,1.6l-4.8,21.5
			c-0.6,1.2-1.1,1.6-2.6,1.6H142.1z"/>
		<path class="st1" d="M136,97c2.6,0,3.8,1.2,5.3,3.4l8.8,18.2l0.2,0.4l0.4,0.1c0.6,0.2,1,0.6,1.1,1.1l-4.7,21.4
			c-0.5,1-0.9,1.3-2.1,1.3h-2.3c-0.6-7.3-7.1-13-15-13c-7.5,0-13.8,5.6-14.6,13h-1.2l4.1-23.9H140h1.5l-0.5-1.4l-3.7-9.7
			c-1.4-3.2-3.9-4.9-7.2-4.9h-11.7l1.5-6H136 M136,96h-17l-2,8c4.8,0,13,0,13,0c3.3,0,5.2,1.8,6.3,4.3l3.7,9.7h-25l-4.4,25.9h3.3
			c0.4-7.2,6.2-13,13.7-13c7.5,0,14,5.7,14,13h3.3c1.7,0,2.4-0.6,3.1-2l4.8-21.6c0-0.9-0.7-1.7-1.8-2.1l-8.8-18.3
			C140.5,97.4,139,96,136,96L136,96z"/>
	</g>
	<g>
		<path class="st2" d="M61.4,143.5c-1.1-6.8-7.6-12-15-12c-7.1,0-13,4.9-14.3,11.8c-15.4-2.8-16.6-4.7-16.6-5.2l8.2-50.9
			c0-3.1,2.2-5.7,4.7-5.7h78.3c2.5,0,4.5,2.5,4.5,5.6l-8.2,50.9c0,3.3-2.7,5.5-5.1,5.5H61.4z"/>
		<path class="st1" d="M106.7,82c2.2,0,4,2.3,4,5l-8.2,50.9l0,0.1v0.1c0,2.9-2.4,4.9-4.6,4.9H61.8c-1.4-6.8-8-12-15.4-12
			c-7.1,0-13.2,4.9-14.7,11.8c-13.5-2.5-15.4-4.2-15.7-4.7l8.1-50.8l0-0.1v-0.1c0-2.8,1.9-5.1,4.2-5.1H106.7 M106.7,81H28.4
			c-2.8,0-5.2,2.8-5.2,6.1l-8.2,51c0,2.7,14.8,5.3,17.5,5.8c1.1-6.7,6.9-11.9,13.9-11.9c7.2,0,13.6,5.1,14.6,12h37
			c2.8,0,5.6-2.5,5.6-5.9l8.2-51C111.8,83.8,109.5,81,106.7,81L106.7,81z"/>
	</g>
	<circle class="st9" cx="46.9" cy="145.5" r="9"/>
	<circle class="st9" cx="127.7" cy="145.5" r="9"/>
</g>
<g>
	<circle class="st4" cx="195.5" cy="268.6" r="15.6"/>
	<path class="st4" d="M384.8,218.3l-16-33c-2.9-4.6-5.8-6.2-11.3-6.2h-31l-2.5,13c8.7,0,24,0,24,0c5.9,0,8.4,3.9,10.3,8.4L365,218
		h-46l-7,47h6c0.6-12.9,10.9-23.8,24.5-23.8S368,251.7,368,265h6c3.1,0,4.1-1.3,5.3-3.8l8.7-39.1C388,220.4,386.7,219,384.8,218.3z"
		/>
	<path class="st4" d="M305,151H163c-2.9,0.1-5.6,1.5-7.1,4c0,0-1.3,2-2,6.5l-1,6.5h57.8c2.5,0,4.4,1.9,4.4,4.4v1.1
		c0,2.5-1.7,4.5-4.2,4.5h-93c-3.9,0-6,10-2,10l91.9,0c2.5,0,4.4,1.9,4.4,4.4v1.1c0,2.5-1.8,4.5-4.3,4.5h-43c-4.3,0-6.2,10-2,10h43
		c2.5,0,3.6,1.9,3.6,4.4v1.1c0,2.5-1.1,4.5-3.6,4.5h-72c-4.1,0-6.8,9-2,9l11.2-0.1l-4.4,27.3c0,0,0,0,0,0l0,0.1
		c0,4.9,26.7,9.6,31.6,10.5c1.9-12.2,12.5-21.6,25.2-21.6c13,0,24.7,9.3,26.3,21.8h68c5,0,9.1-4.6,9.1-10.7l14.8-92.2
		C313.9,155.9,310,151,305,151z"/>
	<circle class="st4" cx="342.8" cy="267.7" r="16.3"/>
</g>
<path class="st4" d="M276.6,150.4"/>
</svg>
