<?xml version="1.0" encoding="utf-8"?>
<!-- Generator: Adobe Illustrator 18.1.1, SVG Export Plug-In . SVG Version: 6.00 Build 0)  -->
<svg version="1.1" id="Слой_1" xmlns="http://www.w3.org/2000/svg" xmlns:xlink="http://www.w3.org/1999/xlink" x="0px" y="0px"
	 viewBox="0 0 234 81" enable-background="new 0 0 234 81" xml:space="preserve">
<g>
	<g>
		<g>
			<polygon fill="#D1B76B" points="77.8,18.5 67.3,26.2 28.4,18.2 43.2,11.8 			"/>
		</g>
		<path fill="#D1B76B" d="M28.4,18.2l-1.2,7.3l-4.9,29.1L59.8,65l6.1-31.4l1.4-7.4L28.4,18.2z"/>
		<polygon fill="#D1B76B" points="77.5,18.7 67.3,26.2 59.7,64.5 71.6,52.9 		"/>
	</g>
	<g>
		<path fill="#1E1B1E" d="M63,35C63,35.1,63,35.1,63,35L63,35c0,0-0.1,0-0.1,0L63,35z"/>
	</g>
	<g>
		<path fill="#2E221A" d="M64.1,33.3L63,35.1c0,0,0,0,0,0l-0.1,0c-3.7-2.4-6.9-3.7-11.7-4.7l0.5-2.3C56.8,29.1,60.2,30.7,64.1,33.3z
			"/>
	</g>
	<g>
		<path fill="#2E221A" d="M62.9,35.1L62.9,35.1c-1.5,6.9-6.4,6.8-10.2,6.2c-3.6-0.5-5.3-2.7-6-5.4c-0.2-0.7-0.4-1.4-1.1-1.6
			l-1.5-0.4c-0.7-0.2-1.4,0.1-1.9,0.7c-1.9,2.1-4.7,3.4-7.3,2.6c-4.8-1.5-6.1-5.1-5.7-9.2h0l0,0c0,0,0.1,0,0.1,0L62.9,35.1
			C62.9,35,62.9,35.1,62.9,35.1z"/>
	</g>
	<g>
		<path fill="#2E221A" d="M41.7,26l-0.5,2.1c-4.9-0.7-7.7-0.6-12-0.2l-0.1,0l-0.3-2.1C33.5,25.2,36.5,25.2,41.7,26z"/>
	</g>
	<g>
		<path fill="#1E1B1E" d="M29.3,27.9C29.2,27.9,29.2,27.9,29.3,27.9L29.3,27.9L29.3,27.9z"/>
	</g>
	<g>
		<path fill="#1E1B1E" d="M44.2,43.5c-3.8-0.9-7.3-2.3-10.4-3.8l-0.5-0.1c0,0,1.4,8,9.8,9.8c9.7,2.1,13.1-3.4,13.8-4.5
			C53,45,48.7,44.5,44.2,43.5z"/>
	</g>
	<g>
		<g>
			<path fill="#2E221A" d="M47.2,50.5c-1.3,0-2.8-0.2-4.3-0.5c-8.8-1.9-10.3-10.3-10.4-10.4l-0.2-1.5c0,0,5.8,2.9,12,4.6
				c4.2,1.1,8.5,1.5,12.4,1.4l1.4,0l-0.8,1.2C54.7,49.6,50.3,50.5,47.2,50.5z"/>
		</g>
		<g>
			<path fill="#FFFFFF" d="M56.9,44.9c-3.9,0.1-8.2-0.1-12.6-1.2c-5.4-1.3-10.8-4.1-10.8-4.1c1.3,3.1,4.1,7.4,10.5,8.4
				c4.7,0.8,8.3,0.1,11-1C56.1,46,56.7,45.2,56.9,44.9z"/>
		</g>
	</g>
	<g>
		<path fill="#2E221A" d="M34,17.4l9.3-4.3L74,18.8C48,14.9,46.6,12.3,34,17.4z"/>
	</g>
	<g>
		<path fill="#2E221A" d="M57.4,23l9.2,1.6l6.4-4.3C68.3,22.3,66.2,23.3,57.4,23z"/>
	</g>
	<path fill="#2E221A" d="M78.1,18.1l-34.7-6.7l-0.2,0l-14.8,6.4l-0.2,0.3L22,54.4l0.3,0.4l37.6,10.4l0.4-0.1l11.6-12.1l0.1-0.2
		l6.4-34.4L78.1,18.1z M66.6,29.2l-1.5,7.8l6-3.8l-6.5,6.6l-1.3,6.6l6.3-4l-6.9,6.9l-1,4.9l6.4-4.1l-6.9,7l-1.4,7.4L22.8,54.2
		l6-35.6l38.2,7.9l5.4-3.3L66.6,29.2z M67.2,25.8l-28.9-6l-7.4-2.2l12.5-5.4l33.7,6.5L67.2,25.8z"/>
	<g>
		<g>
			<path fill="#7291C4" d="M29.6,70.7c0.2,0,0.4,0,0.5,0c4.1,0,7.6-2.5,9-6.1h0c-1.8-1.3-4.1-2.4-6.7-3.4l-2.7,9.3L29.6,70.7z
				 M27.3,59.8C25,59.3,22.7,59,20.7,59c-0.2,0.7-0.2,1.4-0.2,2.2c0,3.2,1.6,6.1,4,7.8L27.3,59.8z M23.8,54.1c2.6,0,5.6,0.5,8.7,1.4
				c2.4,0.7,4.6,1.5,6.5,2.5l0.1-0.2c-1.4-3.7-4.9-6.3-9-6.3c-2.4,0-4.6,0.9-6.3,2.4L23.8,54.1z M30.1,47.8c7.4,0,13.4,6,13.4,13.4
				s-6,13.4-13.4,13.4s-13.4-6-13.4-13.4S22.7,47.8,30.1,47.8z"/>
		</g>
	</g>
	<g>
		<g>
			<path fill="#384355" d="M30.1,74.9c-7.6,0-13.8-6.2-13.8-13.8c0-7.6,6.2-13.8,13.8-13.8c7.6,0,13.8,6.2,13.8,13.8
				C43.9,68.7,37.7,74.9,30.1,74.9z M30.1,48.1c-7.2,0-13,5.8-13,13c0,7.2,5.8,13,13,13c7.2,0,13-5.8,13-13
				C43.1,54,37.3,48.1,30.1,48.1z"/>
		</g>
		<path fill="#384355" d="M39.3,64.3c-1.8-1.3-4.2-2.5-6.8-3.4l-0.1,0L32,61.2l-2.7,9.3l0.3,0.6l0.1,0c0.2,0,0.4,0,0.6,0
			c4.1,0,7.8-2.5,9.3-6.3L39.3,64.3z M30.1,70.4C30.1,70.4,30,70.4,30.1,70.4l2.5-8.6c2.3,0.9,4.4,1.9,6,3
			C37.1,68.2,33.8,70.4,30.1,70.4z"/>
		<path fill="#384355" d="M27.7,59.8l-0.3-0.3c-2.3-0.5-4.7-0.8-6.6-0.8h-0.1l-0.3,0.3c-0.2,0.7-0.3,1.5-0.3,2.2
			c0,3.2,1.6,6.3,4.2,8.1l0.6-0.2L27.7,59.8z M20.9,61.2c0-0.6,0.1-1.2,0.2-1.8c1.7,0.1,3.7,0.3,5.7,0.7l-2.4,8.3
			C22.2,66.6,20.9,64,20.9,61.2z"/>
		<path fill="#384355" d="M39.5,57.7c-1.4-3.9-5.2-6.5-9.4-6.5c-2.4,0-4.7,0.9-6.5,2.5c0,0,0,0.1,0,0.1v0.7c0.1,0,0.1,0,0.2,0
			c2.7,0,5.7,0.5,8.6,1.4c2.3,0.7,4.5,1.5,6.5,2.5c0.1,0,0.1,0,0.2,0.1L39.5,57.7C39.4,57.8,39.5,57.7,39.5,57.7z M24.5,53.8
			c1.6-1.2,3.5-1.9,5.6-1.9c3.6,0,6.9,2.2,8.4,5.4c-1.8-0.9-3.8-1.6-5.9-2.2C29.9,54.3,27.1,53.9,24.5,53.8z"/>
	</g>
	<g>
		<g>
			<path fill="#D1B76B" d="M23,48l2.8,3.6c-2.9,2.8-5,4.4-8.2,6.4l-3-3C16.6,51.7,18.6,49.5,23,48z"/>
		</g>
		<g>
			<g>
				<path fill="#2E221A" d="M17.5,58.4L14.1,55l0.2-0.2c2.2-3.4,4.2-5.6,8.6-7.1l0.2-0.1l3.2,4L26,51.8c-3.1,3-5.3,4.6-8.2,6.4
					L17.5,58.4z M15,54.9l2.6,2.6c2.7-1.7,4.8-3.3,7.6-6l-2.4-3.1C18.9,49.8,17,51.8,15,54.9z"/>
			</g>
		</g>
	</g>
	<g>
		<g>
			<g>
				<path fill="#D1B76B" d="M46.6,55.7c0,0,4,0.4,3.8,6.3c-0.2,5.1-3,5.8-3.8,5.8V55.7z"/>
			</g>
			<g>
				<path fill="#D1B76B" d="M46.6,55.7l-0.2,12.2h-6.4c-1.1-4.3-1.6-7.2,0-12.2H46.6z"/>
			</g>
		</g>
		<path fill="#2E221A" d="M50.8,62c0.2-5.2-2.8-6.4-3.8-6.7l-0.7-0.1h-6.6l-0.1,0.3c-1.6,5-1.1,8,0,12.4l0.1,0.3H46l1-0.1
			C48.1,67.9,50.6,66.9,50.8,62z M40.2,67.5c-1-4-1.5-6.8,0-11.5h6L46,67.5H40.2z M46.9,67.4V56.1c1,0.3,3.2,1.4,3.1,5.9
			C49.9,66.1,48,67.2,46.9,67.4z"/>
	</g>
</g>
<g>
	<g>
		<g>
			<path fill="#FFFFFF" d="M113.2,41.8l-7.1,0l0.5-2.8l6,0c0.5,0,0.7-0.2,0.8-0.6l0.3-1.6c0.1-0.4,0-0.6-0.5-0.6l-6,0l0.4-2.3l6.7,0
				c0.5,0,0.7-0.2,0.8-0.6l0.3-1.8c0.1-0.4,0-0.6-0.5-0.6l-9.6,0c-0.5,0-0.7,0.2-0.8,0.6l-2.2,12.7c-0.1,0.4,0,0.6,0.5,0.6l10,0
				c0.5,0,0.7-0.2,0.8-0.6l0.3-1.7C113.8,42,113.7,41.8,113.2,41.8z"/>
			<path fill="#FFFFFF" d="M125.1,37.7c1-0.2,2-1.3,2.2-2.6c0.5-3-1.7-4.5-4.7-4.5c-2.8,0-5.4,1.6-5.8,3.8c-0.1,0.5,0,0.6,0.5,0.6
				l1.9,0c0.4,0,0.5-0.1,0.6-0.4c0.5-1,1.6-1.2,2.3-1.2c0.9,0,2,0.4,1.7,1.7c-0.2,0.9-0.9,1.4-2.3,1.4l-1,0c-0.4,0-0.6,0.2-0.7,0.5
				l-0.2,1.4c-0.1,0.4,0,0.6,0.5,0.6l1,0c1.5,0,2.3,0.5,2.1,1.7c-0.2,1.1-1.4,1.6-2.4,1.6c-0.7,0-1.9-0.2-2.1-1.3
				c0-0.4-0.1-0.5-0.5-0.5l-2,0c-0.5,0-0.6,0.1-0.7,0.6c-0.4,2.3,1.8,4,4.6,4c3,0,5.8-1.1,6.4-4.5C127.1,39.2,126.3,38.1,125.1,37.7
				z"/>
			<path fill="#FFFFFF" d="M140,41.9l-7.1,0l0.5-2.8l6,0c0.5,0,0.7-0.2,0.8-0.6l0.3-1.6c0.1-0.4,0-0.6-0.5-0.6l-6,0l0.4-2.3l6.7,0
				c0.5,0,0.7-0.2,0.8-0.6l0.3-1.8c0.1-0.4,0-0.6-0.5-0.6l-9.6,0c-0.5,0-0.7,0.2-0.8,0.6l-2.2,12.7c-0.1,0.4,0,0.6,0.5,0.6l10,0
				c0.5,0,0.7-0.2,0.8-0.6l0.3-1.7C140.6,42.1,140.5,41.9,140,41.9z"/>
			<path fill="#FFFFFF" d="M155.1,31l-10.3,0c-0.5,0-0.7,0.2-0.8,0.6l-0.3,1.8c-0.1,0.4,0,0.6,0.5,0.6l3.4,0l-1.8,10.3
				c-0.1,0.5,0.1,0.6,0.5,0.6l2.2,0c0.4,0,0.7-0.1,0.8-0.6l1.8-10.3l3.4,0c0.5,0,0.7-0.2,0.8-0.6l0.3-1.8
				C155.7,31.2,155.6,31,155.1,31z"/>
			<path fill="#FFFFFF" d="M133.9,28.5l6.5,0c0.3,0,0.6-0.2,0.7-0.5l0.3-1.8c0-0.2,0-0.3-0.2-0.4c-0.1-0.1-0.3-0.1-0.5-0.1l-6.8,1.8
				c-0.3,0.1-0.5,0.3-0.5,0.6C133.4,28.3,133.6,28.5,133.9,28.5z"/>
			<path fill="#FFFFFF" d="M98.5,37.5c0.2-0.1,1.8-0.8,2.1-2.9c0.4-2-0.9-3.8-4.5-3.8l-6.2,0c-0.5,0-0.7,0.2-0.8,0.6L86.9,44
				c-0.1,0.4,0,0.6,0.5,0.6l6.5,0c3.1,0,5.5-1.4,6-4C100.4,38.3,98.7,37.5,98.5,37.5z M92.2,33.7l3.4,0c1.2,0,1.8,0.2,1.6,1.2
				c-0.1,0.8-0.8,1.3-2.1,1.3l-0.1,0l-0.2,0l-3.1,0L92.2,33.7z M94.6,41.6l-3.7,0l0.5-2.7l3.1,0l0.2,0h0.3c1.1,0,1.8,0.3,1.6,1.3
				C96.3,41.2,95.6,41.7,94.6,41.6z"/>
		</g>
		<g>
			<path fill="#FFFFFF" d="M182.6,33.7c1.2,0,1.8,0.3,2.1,1c0.1,0.3,0.1,0.7,0.6,0.7l2.1,0c0.5,0,0.7-0.1,0.8-0.6
				c0.2-2.7-2.3-4-5.1-4c-2.6,0-6.2,1.4-6.8,4.7l-0.9,5c-0.6,3.3,2.5,4.8,5.1,4.8c2.8,0,6.1-1.7,6.6-4.4c0.1-0.5-0.1-0.7-0.5-0.7
				l-2.2,0c-0.5,0-0.6,0.3-0.7,0.8c-0.4,1-1.4,1.4-2.6,1.4c-1.5,0-2.3-0.8-2.1-2.1l0.8-4.4C180,34.5,181.1,33.7,182.6,33.7z"/>
			<path fill="#FFFFFF" d="M200.3,42.1l-7.1,0l0.5-2.8l6,0c0.5,0,0.7-0.2,0.8-0.6l0.3-1.6c0.1-0.4,0-0.6-0.5-0.6l-6,0l0.4-2.3l6.7,0
				c0.5,0,0.7-0.2,0.8-0.6l0.3-1.8c0.1-0.4,0-0.6-0.5-0.6l-9.6,0c-0.5,0-0.7,0.2-0.8,0.6l-2.2,12.7c-0.1,0.4,0,0.6,0.5,0.6l10,0
				c0.5,0,0.7-0.2,0.8-0.6l0.3-1.7C200.9,42.3,200.8,42.1,200.3,42.1z"/>
			<path fill="#FFFFFF" d="M218.7,31.2l-2.1,0c-0.7,0-0.9,0.5-1.1,0.7l-4,5.2l-2.1-5.2c-0.1-0.3-0.1-0.7-0.9-0.7l-2.2,0
				c-0.5,0-0.7,0.2-0.8,0.6l-2.2,12.7c-0.1,0.5,0.1,0.6,0.5,0.6l2.2,0c0.4,0,0.7-0.1,0.8-0.6l1.3-7.2l1.6,3.7
				c0.1,0.2,0.2,0.4,0.5,0.4l1.1,0c0.3,0,0.6-0.3,0.7-0.4l2.9-3.7l-1.3,7.2c-0.1,0.5,0.1,0.6,0.5,0.6l2.1,0c0.4,0,0.7-0.1,0.8-0.6
				l2.2-12.7C219.3,31.5,219.2,31.2,218.7,31.2z"/>
			<path fill="#FFFFFF" d="M171.5,37.7c0.2-0.1,1.8-0.8,2.1-2.9c0.4-2-0.9-3.8-4.5-3.8l-6.2,0c-0.5,0-0.7,0.2-0.8,0.6l-2.2,12.7
				c-0.1,0.4,0,0.6,0.5,0.6l6.5,0c3.1,0,5.5-1.4,6-4C173.4,38.6,171.7,37.8,171.5,37.7z M165.2,34l3.4,0c1.2,0,1.8,0.2,1.6,1.2
				c-0.1,0.8-0.8,1.2-2,1.3l-3.4,0L165.2,34z M167.6,41.9l-3.7,0l0.5-2.7l3.1,0l0.5,0c1.1,0,1.8,0.3,1.6,1.3
				C169.4,41.5,168.7,41.9,167.6,41.9z"/>
		</g>
	</g>
</g>
<g>
	<path fill="#FFFFFF" d="M90.9,54.1c0,0.4-0.1,0.7-0.2,1c-0.1,0.3-0.3,0.6-0.5,0.8c-0.2,0.2-0.5,0.4-0.8,0.6
		c-0.3,0.1-0.7,0.2-1.1,0.2c-0.6,0-1-0.1-1.3-0.4c-0.3-0.3-0.5-0.7-0.5-1.2c0-0.4,0.1-0.7,0.2-1c0.1-0.3,0.3-0.6,0.5-0.8
		c0.2-0.2,0.5-0.4,0.8-0.6c0.3-0.1,0.7-0.2,1.1-0.2c0.6,0,1,0.1,1.3,0.4S90.9,53.7,90.9,54.1z M89.2,55.4c0.1-0.2,0.2-0.3,0.2-0.5
		c0.1-0.2,0.1-0.4,0.1-0.7c0-0.2-0.1-0.4-0.2-0.6s-0.3-0.2-0.5-0.2c-0.2,0-0.3,0-0.5,0.1c-0.1,0.1-0.3,0.2-0.4,0.4
		c-0.1,0.1-0.2,0.3-0.2,0.5s-0.1,0.4-0.1,0.7c0,0.3,0.1,0.5,0.2,0.6s0.3,0.2,0.5,0.2c0.2,0,0.3,0,0.4-0.1
		C89,55.7,89.1,55.6,89.2,55.4z"/>
	<path fill="#FFFFFF" d="M95.2,56.6H94l0.4-1.7h-1.4l-0.4,1.7h-1.3l0.9-3.9h1.3l-0.3,1.4h1.4l0.3-1.4h1.3L95.2,56.6z"/>
	<path fill="#FFFFFF" d="M100.3,56.6H99l0.7-3.1h-1c0,0.1-0.1,0.3-0.1,0.4c0,0.1-0.1,0.3-0.1,0.3c-0.1,0.3-0.1,0.5-0.2,0.7
		c-0.1,0.2-0.1,0.4-0.2,0.5c-0.1,0.2-0.3,0.5-0.5,0.6c-0.2,0.2-0.4,0.3-0.6,0.4c-0.1,0-0.2,0.1-0.3,0.1c-0.1,0-0.2,0-0.3,0
		c-0.1,0-0.2,0-0.3,0s-0.2,0-0.2,0l0.2-1h0c0,0,0,0,0.1,0c0,0,0.1,0,0.1,0c0.1,0,0.3,0,0.3-0.1c0.1,0,0.2-0.1,0.2-0.2
		c0.1-0.1,0.2-0.3,0.3-0.5c0.1-0.2,0.2-0.5,0.3-0.9c0.1-0.2,0.1-0.4,0.2-0.6c0-0.2,0.1-0.4,0.2-0.7h3.4L100.3,56.6z"/>
	<path fill="#FFFFFF" d="M104,56.2c-0.1,0.1-0.2,0.1-0.3,0.2c-0.1,0.1-0.2,0.1-0.3,0.2c-0.1,0.1-0.3,0.1-0.4,0.1c-0.1,0-0.3,0-0.5,0
		c-0.3,0-0.6-0.1-0.8-0.3s-0.3-0.4-0.3-0.7c0-0.3,0.1-0.6,0.2-0.8c0.1-0.2,0.4-0.4,0.7-0.5c0.3-0.1,0.6-0.2,1-0.3
		c0.4-0.1,0.8-0.1,1.2-0.1c0,0,0,0,0-0.1c0,0,0-0.1,0-0.1c0-0.2-0.1-0.3-0.2-0.3c-0.2-0.1-0.4-0.1-0.7-0.1c-0.2,0-0.4,0-0.7,0.1
		s-0.4,0.1-0.6,0.2h-0.1l0.2-0.9c0.1,0,0.4-0.1,0.7-0.1c0.3,0,0.6-0.1,0.9-0.1c0.6,0,1.1,0.1,1.4,0.2c0.3,0.2,0.4,0.4,0.4,0.7
		c0,0,0,0.1,0,0.2c0,0.1,0,0.1,0,0.2l-0.6,2.7h-1.3L104,56.2z M104.3,54.8c-0.2,0-0.4,0-0.6,0.1c-0.2,0-0.4,0.1-0.5,0.1
		c-0.1,0.1-0.3,0.1-0.3,0.2c-0.1,0.1-0.1,0.2-0.1,0.4c0,0.1,0,0.2,0.1,0.3c0.1,0.1,0.2,0.1,0.4,0.1c0.1,0,0.3,0,0.4-0.1
		c0.1-0.1,0.3-0.1,0.4-0.2L104.3,54.8z"/>
	<path fill="#FFFFFF" d="M110.3,56.6H109l0.6-2.4l-2.3,2.4h-1l0.9-3.9h1.2l-0.5,2.1l2.1-2.1h1.2L110.3,56.6z M110.9,51
		c-0.1,0.4-0.3,0.7-0.6,1c-0.3,0.2-0.7,0.3-1.2,0.3c-0.4,0-0.8-0.1-1-0.3c-0.2-0.2-0.3-0.4-0.3-0.7c0,0,0-0.1,0-0.1c0,0,0-0.1,0-0.1
		h1c0,0,0,0.1,0,0.1c0,0,0,0.1,0,0.1c0,0.1,0,0.3,0.1,0.3c0.1,0.1,0.2,0.1,0.4,0.1c0.2,0,0.4-0.1,0.5-0.2c0.1-0.1,0.2-0.3,0.2-0.5
		C109.9,51,110.9,51,110.9,51z"/>
	<path fill="#FFFFFF" d="M115.4,56.6h-1.3l0.4-1.7h-1.4l-0.4,1.7h-1.3l0.9-3.9h1.3l-0.3,1.4h1.4l0.3-1.4h1.3L115.4,56.6z"/>
	<path fill="#FFFFFF" d="M119.5,54.8h-2.7l0.2-1h2.7L119.5,54.8z"/>
	<path fill="#FFFFFF" d="M122.1,56.7c-0.3,0-0.5,0-0.8-0.1c-0.2-0.1-0.4-0.2-0.6-0.3c-0.2-0.1-0.3-0.3-0.4-0.5
		c-0.1-0.2-0.1-0.4-0.1-0.7c0-0.4,0.1-0.7,0.2-1c0.1-0.3,0.3-0.6,0.6-0.8c0.2-0.2,0.5-0.4,0.9-0.5c0.3-0.1,0.7-0.2,1.1-0.2
		c0.2,0,0.5,0,0.7,0.1c0.2,0.1,0.5,0.1,0.7,0.2L124,54h-0.2c-0.1-0.2-0.3-0.3-0.5-0.4c-0.2-0.1-0.4-0.1-0.6-0.1
		c-0.4,0-0.7,0.1-1,0.4s-0.4,0.6-0.4,1.1c0,0.3,0.1,0.5,0.2,0.7c0.1,0.1,0.4,0.2,0.7,0.2c0.2,0,0.5,0,0.7-0.1
		c0.2-0.1,0.4-0.2,0.5-0.3h0.2l-0.3,1.1c-0.3,0.1-0.5,0.2-0.7,0.2C122.6,56.7,122.4,56.7,122.1,56.7z"/>
	<path fill="#FFFFFF" d="M126.5,56.7c-0.7,0-1.2-0.1-1.6-0.4s-0.5-0.7-0.5-1.2c0-0.4,0.1-0.7,0.2-1c0.1-0.3,0.3-0.6,0.5-0.8
		c0.2-0.2,0.5-0.4,0.8-0.5c0.3-0.1,0.7-0.2,1.1-0.2c0.6,0,1,0.1,1.3,0.4c0.3,0.2,0.4,0.6,0.4,1c0,0.2,0,0.3,0,0.5
		c0,0.2-0.1,0.3-0.1,0.5h-2.9c0,0,0,0,0,0c0,0,0,0,0,0c0,0.3,0.1,0.5,0.3,0.6c0.2,0.2,0.5,0.2,0.9,0.2c0.3,0,0.5,0,0.8-0.1
		c0.2-0.1,0.5-0.2,0.6-0.3h0.1l-0.2,1c-0.2,0.1-0.5,0.2-0.8,0.2S126.8,56.7,126.5,56.7z M127.4,54.2c0,0,0-0.1,0-0.1s0-0.1,0-0.1
		c0-0.2-0.1-0.3-0.2-0.4c-0.1-0.1-0.3-0.1-0.5-0.1c-0.3,0-0.5,0.1-0.7,0.2s-0.3,0.3-0.4,0.6L127.4,54.2L127.4,54.2z"/>
	<path fill="#FFFFFF" d="M133.7,54c0,0.4-0.1,0.7-0.2,1.1s-0.3,0.6-0.5,0.9c-0.2,0.3-0.5,0.5-0.7,0.6c-0.3,0.1-0.6,0.2-0.9,0.2
		c-0.2,0-0.4,0-0.6-0.1c-0.2,0-0.3-0.1-0.5-0.2l-0.4,1.6h-1.3l1.2-5.4h1.3l-0.1,0.4c0.2-0.2,0.5-0.3,0.7-0.4
		c0.2-0.1,0.4-0.1,0.7-0.1c0.4,0,0.7,0.1,0.9,0.4C133.6,53.2,133.7,53.5,133.7,54z M132,55.3c0.1-0.1,0.2-0.3,0.2-0.5
		c0.1-0.2,0.1-0.4,0.1-0.6c0-0.2,0-0.4-0.1-0.5c-0.1-0.1-0.3-0.2-0.5-0.2c-0.1,0-0.2,0-0.4,0.1c-0.1,0-0.2,0.1-0.4,0.2l-0.5,2
		c0.1,0,0.2,0.1,0.3,0.1c0.1,0,0.2,0,0.3,0c0.2,0,0.4,0,0.6-0.1C131.8,55.6,131.9,55.5,132,55.3z"/>
	<path fill="#FFFFFF" d="M138.3,55.3c0,0.2-0.1,0.4-0.2,0.6c-0.1,0.2-0.3,0.3-0.4,0.5c-0.2,0.1-0.3,0.2-0.5,0.2
		c-0.2,0-0.4,0.1-0.7,0.1H134l0.9-3.9h2.2c0.2,0,0.4,0,0.6,0.1c0.2,0,0.3,0.1,0.4,0.2c0.1,0.1,0.2,0.1,0.2,0.2
		c0.1,0.1,0.1,0.2,0.1,0.3c0,0.2-0.1,0.5-0.2,0.6c-0.1,0.2-0.3,0.3-0.5,0.4v0c0.2,0,0.3,0.1,0.4,0.3
		C138.3,54.9,138.3,55.1,138.3,55.3z M137,55.3c0-0.1,0-0.2-0.1-0.3c-0.1-0.1-0.2-0.1-0.4-0.1h-0.8l-0.2,0.9h0.9
		c0.2,0,0.4,0,0.5-0.1C136.9,55.6,137,55.5,137,55.3z M137.1,53.8c0-0.1,0-0.2-0.1-0.2s-0.2-0.1-0.4-0.1H136l-0.2,0.8h0.7
		c0.2,0,0.4,0,0.5-0.1S137.1,54,137.1,53.8z"/>
	<path fill="#FFFFFF" d="M142.9,56.6h-1.2l0.6-2.4l-2.3,2.4h-1l0.9-3.9h1.2l-0.5,2.1l2.1-2.1h1.2L142.9,56.6z"/>
	<path fill="#FFFFFF" d="M146.1,56.7c-0.3,0-0.5,0-0.8-0.1c-0.2-0.1-0.4-0.2-0.6-0.3c-0.2-0.1-0.3-0.3-0.4-0.5
		c-0.1-0.2-0.1-0.4-0.1-0.7c0-0.4,0.1-0.7,0.2-1c0.1-0.3,0.3-0.6,0.6-0.8c0.2-0.2,0.5-0.4,0.9-0.5c0.3-0.1,0.7-0.2,1.1-0.2
		c0.2,0,0.5,0,0.7,0.1c0.2,0.1,0.5,0.1,0.7,0.2L148,54h-0.2c-0.1-0.2-0.3-0.3-0.5-0.4c-0.2-0.1-0.4-0.1-0.6-0.1
		c-0.4,0-0.7,0.1-1,0.4s-0.4,0.6-0.4,1.1c0,0.3,0.1,0.5,0.2,0.7c0.1,0.1,0.4,0.2,0.7,0.2c0.2,0,0.5,0,0.7-0.1
		c0.2-0.1,0.4-0.2,0.5-0.3h0.2l-0.3,1.1c-0.3,0.1-0.5,0.2-0.7,0.2C146.6,56.7,146.4,56.7,146.1,56.7z"/>
	<path fill="#FFFFFF" d="M154.6,53.6h-1.9l-0.7,3.1h-1.3l0.9-3.9h3.2L154.6,53.6z"/>
	<path fill="#FFFFFF" d="M159.2,54c0,0.4-0.1,0.7-0.2,1.1s-0.3,0.6-0.5,0.9c-0.2,0.3-0.5,0.5-0.7,0.6c-0.3,0.1-0.6,0.2-0.9,0.2
		c-0.2,0-0.4,0-0.6-0.1c-0.2,0-0.3-0.1-0.5-0.2l-0.4,1.6h-1.3l1.2-5.4h1.3l-0.1,0.4c0.2-0.2,0.5-0.3,0.7-0.4
		c0.2-0.1,0.4-0.1,0.7-0.1c0.4,0,0.7,0.1,0.9,0.4S159.2,53.5,159.2,54z M157.5,55.3c0.1-0.1,0.2-0.3,0.2-0.5
		c0.1-0.2,0.1-0.4,0.1-0.6c0-0.2,0-0.4-0.1-0.5c-0.1-0.1-0.3-0.2-0.5-0.2c-0.1,0-0.2,0-0.4,0.1c-0.1,0-0.2,0.1-0.4,0.2l-0.5,2
		c0.1,0,0.2,0.1,0.3,0.1c0.1,0,0.2,0,0.3,0c0.2,0,0.4,0,0.6-0.1C157.3,55.6,157.4,55.5,157.5,55.3z"/>
	<path fill="#FFFFFF" d="M161,58.1h-1.4l1-1.5l-0.6-3.9h1.3l0.3,2.6l1.5-2.6h1.3L161,58.1z"/>
	<path fill="#FFFFFF" d="M167.1,56.4c-0.2,0.1-0.4,0.2-0.7,0.2s-0.5,0.1-0.8,0.1c-0.3,0-0.7,0-0.9-0.1s-0.5-0.1-0.7-0.2l0.2-0.9h0.1
		c0.2,0.1,0.4,0.2,0.6,0.3c0.2,0.1,0.4,0.1,0.7,0.1c0.1,0,0.2,0,0.3,0c0.1,0,0.2,0,0.3-0.1c0.1,0,0.2-0.1,0.2-0.2
		c0.1-0.1,0.1-0.2,0.1-0.3c0-0.1,0-0.1-0.1-0.2c0,0-0.1-0.1-0.2-0.1c-0.1,0-0.2,0-0.3,0c-0.1,0-0.2,0-0.3,0h-0.6l0.2-0.8h0.5
		c0.1,0,0.2,0,0.4,0c0.1,0,0.2,0,0.3,0c0.1,0,0.2-0.1,0.2-0.1c0.1-0.1,0.1-0.1,0.1-0.3c0-0.1,0-0.1-0.1-0.2c0,0-0.1-0.1-0.2-0.1
		c-0.1,0-0.2,0-0.2-0.1c-0.1,0-0.2,0-0.3,0c-0.2,0-0.4,0-0.6,0.1c-0.2,0.1-0.4,0.1-0.6,0.2h-0.1l0.2-0.9c0.1,0,0.4-0.1,0.7-0.2
		c0.3-0.1,0.6-0.1,0.9-0.1c0.2,0,0.4,0,0.6,0.1c0.2,0,0.4,0.1,0.5,0.2c0.2,0.1,0.3,0.2,0.4,0.3s0.1,0.3,0.1,0.4
		c0,0.3-0.1,0.5-0.3,0.7c-0.2,0.2-0.4,0.3-0.6,0.4l0,0c0.2,0.1,0.3,0.1,0.5,0.3s0.2,0.3,0.2,0.5c0,0.3-0.1,0.5-0.2,0.6
		C167.5,56.2,167.3,56.3,167.1,56.4z"/>
	<path fill="#FFFFFF" d="M172.9,54.1c0,0.4-0.1,0.7-0.2,1c-0.1,0.3-0.3,0.6-0.5,0.8c-0.2,0.2-0.5,0.4-0.8,0.6
		c-0.3,0.1-0.7,0.2-1.1,0.2c-0.6,0-1-0.1-1.3-0.4c-0.3-0.3-0.5-0.7-0.5-1.2c0-0.4,0.1-0.7,0.2-1c0.1-0.3,0.3-0.6,0.5-0.8
		c0.2-0.2,0.5-0.4,0.8-0.6c0.3-0.1,0.7-0.2,1.1-0.2c0.6,0,1,0.1,1.3,0.4S172.9,53.7,172.9,54.1z M171.3,55.4
		c0.1-0.2,0.2-0.3,0.2-0.5c0.1-0.2,0.1-0.4,0.1-0.7c0-0.2-0.1-0.4-0.2-0.6c-0.1-0.1-0.3-0.2-0.5-0.2c-0.2,0-0.3,0-0.5,0.1
		c-0.1,0.1-0.3,0.2-0.4,0.4c-0.1,0.1-0.2,0.3-0.2,0.5c-0.1,0.2-0.1,0.4-0.1,0.7c0,0.3,0.1,0.5,0.2,0.6s0.3,0.2,0.5,0.2
		c0.2,0,0.3,0,0.4-0.1C171.1,55.7,171.2,55.6,171.3,55.4z"/>
	<path fill="#FFFFFF" d="M177.3,56.6H176l0.7-3.1h-1.4l-0.7,3.1h-1.3l0.9-3.9h4L177.3,56.6z"/>
	<path fill="#FFFFFF" d="M180.7,56.7c-0.7,0-1.2-0.1-1.6-0.4s-0.5-0.7-0.5-1.2c0-0.4,0.1-0.7,0.2-1c0.1-0.3,0.3-0.6,0.5-0.8
		c0.2-0.2,0.5-0.4,0.8-0.5c0.3-0.1,0.7-0.2,1.1-0.2c0.6,0,1,0.1,1.3,0.4c0.3,0.2,0.4,0.6,0.4,1c0,0.2,0,0.3,0,0.5
		c0,0.2-0.1,0.3-0.1,0.5h-2.9c0,0,0,0,0,0c0,0,0,0,0,0c0,0.3,0.1,0.5,0.3,0.6c0.2,0.2,0.5,0.2,0.9,0.2c0.3,0,0.5,0,0.8-0.1
		c0.2-0.1,0.5-0.2,0.6-0.3h0.1l-0.2,1c-0.2,0.1-0.5,0.2-0.8,0.2C181.3,56.7,181,56.7,180.7,56.7z M181.7,54.2c0,0,0-0.1,0-0.1
		c0,0,0-0.1,0-0.1c0-0.2-0.1-0.3-0.2-0.4c-0.1-0.1-0.3-0.1-0.5-0.1c-0.3,0-0.5,0.1-0.7,0.2s-0.3,0.3-0.4,0.6L181.7,54.2L181.7,54.2z
		"/>
	<path fill="#FFFFFF" d="M187.9,54c0,0.4-0.1,0.7-0.2,1.1s-0.3,0.6-0.5,0.9c-0.2,0.3-0.5,0.5-0.7,0.6c-0.3,0.1-0.6,0.2-0.9,0.2
		c-0.2,0-0.4,0-0.6-0.1c-0.2,0-0.3-0.1-0.5-0.2l-0.4,1.6h-1.3l1.2-5.4h1.3l-0.1,0.4c0.2-0.2,0.5-0.3,0.7-0.4
		c0.2-0.1,0.4-0.1,0.7-0.1c0.4,0,0.7,0.1,0.9,0.4S187.9,53.5,187.9,54z M186.2,55.3c0.1-0.1,0.2-0.3,0.2-0.5
		c0.1-0.2,0.1-0.4,0.1-0.6c0-0.2,0-0.4-0.1-0.5c-0.1-0.1-0.3-0.2-0.5-0.2c-0.1,0-0.2,0-0.4,0.1c-0.1,0-0.2,0.1-0.4,0.2l-0.5,2
		c0.1,0,0.2,0.1,0.3,0.1c0.1,0,0.2,0,0.3,0c0.2,0,0.4,0,0.6-0.1C186,55.6,186.1,55.5,186.2,55.3z"/>
	<path fill="#FFFFFF" d="M190.5,56.7c-0.7,0-1.2-0.1-1.6-0.4s-0.5-0.7-0.5-1.2c0-0.4,0.1-0.7,0.2-1c0.1-0.3,0.3-0.6,0.5-0.8
		c0.2-0.2,0.5-0.4,0.8-0.5c0.3-0.1,0.7-0.2,1.1-0.2c0.6,0,1,0.1,1.3,0.4c0.3,0.2,0.4,0.6,0.4,1c0,0.2,0,0.3,0,0.5
		c0,0.2-0.1,0.3-0.1,0.5h-2.9c0,0,0,0,0,0c0,0,0,0,0,0c0,0.3,0.1,0.5,0.3,0.6c0.2,0.2,0.5,0.2,0.9,0.2c0.3,0,0.5,0,0.8-0.1
		c0.2-0.1,0.5-0.2,0.6-0.3h0.1l-0.2,1c-0.2,0.1-0.5,0.2-0.8,0.2C191.1,56.7,190.8,56.7,190.5,56.7z M191.4,54.2c0,0,0-0.1,0-0.1
		s0-0.1,0-0.1c0-0.2-0.1-0.3-0.2-0.4c-0.1-0.1-0.3-0.1-0.5-0.1c-0.3,0-0.5,0.1-0.7,0.2s-0.3,0.3-0.4,0.6L191.4,54.2L191.4,54.2z"/>
	<path fill="#FFFFFF" d="M197.3,55.3c0,0.2-0.1,0.4-0.2,0.6c-0.1,0.2-0.3,0.3-0.4,0.5c-0.2,0.1-0.3,0.2-0.5,0.2
		c-0.2,0-0.4,0.1-0.7,0.1H193l0.9-3.9h2.2c0.2,0,0.4,0,0.6,0.1c0.2,0,0.3,0.1,0.4,0.2c0.1,0.1,0.2,0.1,0.2,0.2
		c0.1,0.1,0.1,0.2,0.1,0.3c0,0.2-0.1,0.5-0.2,0.6c-0.1,0.2-0.3,0.3-0.5,0.4v0c0.2,0,0.3,0.1,0.4,0.3
		C197.2,54.9,197.3,55.1,197.3,55.3z M196,55.3c0-0.1,0-0.2-0.1-0.3c-0.1-0.1-0.2-0.1-0.4-0.1h-0.8l-0.2,0.9h0.9
		c0.2,0,0.4,0,0.5-0.1C195.9,55.6,196,55.5,196,55.3z M196.1,53.8c0-0.1,0-0.2-0.1-0.2c-0.1-0.1-0.2-0.1-0.4-0.1H195l-0.2,0.8h0.7
		c0.2,0,0.4,0,0.5-0.1C196.1,54.1,196.1,54,196.1,53.8z"/>
	<path fill="#FFFFFF" d="M202.4,54.1c0,0.4-0.1,0.7-0.2,1c-0.1,0.3-0.3,0.6-0.5,0.8c-0.2,0.2-0.5,0.4-0.8,0.6
		c-0.3,0.1-0.7,0.2-1.1,0.2c-0.6,0-1-0.1-1.3-0.4c-0.3-0.3-0.5-0.7-0.5-1.2c0-0.4,0.1-0.7,0.2-1c0.1-0.3,0.3-0.6,0.5-0.8
		c0.2-0.2,0.5-0.4,0.8-0.6c0.3-0.1,0.7-0.2,1.1-0.2c0.6,0,1,0.1,1.3,0.4S202.4,53.7,202.4,54.1z M200.7,55.4
		c0.1-0.2,0.2-0.3,0.2-0.5c0.1-0.2,0.1-0.4,0.1-0.7c0-0.2-0.1-0.4-0.2-0.6c-0.1-0.1-0.3-0.2-0.5-0.2c-0.2,0-0.3,0-0.5,0.1
		c-0.1,0.1-0.3,0.2-0.4,0.4c-0.1,0.1-0.2,0.3-0.2,0.5c-0.1,0.2-0.1,0.4-0.1,0.7c0,0.3,0.1,0.5,0.2,0.6s0.3,0.2,0.5,0.2
		c0.2,0,0.3,0,0.4-0.1C200.5,55.7,200.7,55.6,200.7,55.4z"/>
	<path fill="#FFFFFF" d="M205.7,56.4c-0.2,0.1-0.4,0.2-0.7,0.2s-0.5,0.1-0.8,0.1c-0.3,0-0.7,0-0.9-0.1s-0.5-0.1-0.7-0.2l0.2-0.9h0.1
		c0.2,0.1,0.4,0.2,0.6,0.3c0.2,0.1,0.4,0.1,0.7,0.1c0.1,0,0.2,0,0.3,0c0.1,0,0.2,0,0.3-0.1c0.1,0,0.2-0.1,0.2-0.2
		c0.1-0.1,0.1-0.2,0.1-0.3c0-0.1,0-0.1-0.1-0.2c0,0-0.1-0.1-0.2-0.1c-0.1,0-0.2,0-0.3,0c-0.1,0-0.2,0-0.3,0h-0.6l0.2-0.8h0.5
		c0.1,0,0.2,0,0.4,0c0.1,0,0.2,0,0.3,0c0.1,0,0.2-0.1,0.2-0.1c0.1-0.1,0.1-0.1,0.1-0.3c0-0.1,0-0.1-0.1-0.2c0,0-0.1-0.1-0.2-0.1
		c-0.1,0-0.2,0-0.2-0.1c-0.1,0-0.2,0-0.3,0c-0.2,0-0.4,0-0.6,0.1s-0.4,0.1-0.6,0.2h-0.1l0.2-0.9c0.1,0,0.4-0.1,0.7-0.2
		s0.6-0.1,0.9-0.1c0.2,0,0.4,0,0.6,0.1c0.2,0,0.4,0.1,0.5,0.2c0.2,0.1,0.3,0.2,0.4,0.3s0.1,0.3,0.1,0.4c0,0.3-0.1,0.5-0.3,0.7
		c-0.2,0.2-0.4,0.3-0.6,0.4l0,0c0.2,0.1,0.3,0.1,0.5,0.3s0.2,0.3,0.2,0.5c0,0.3-0.1,0.5-0.2,0.6C206.1,56.2,205.9,56.3,205.7,56.4z"
		/>
	<path fill="#FFFFFF" d="M211.5,54.1c0,0.4-0.1,0.7-0.2,1c-0.1,0.3-0.3,0.6-0.5,0.8c-0.2,0.2-0.5,0.4-0.8,0.6
		c-0.3,0.1-0.7,0.2-1.1,0.2c-0.6,0-1-0.1-1.3-0.4c-0.3-0.3-0.5-0.7-0.5-1.2c0-0.4,0.1-0.7,0.2-1c0.1-0.3,0.3-0.6,0.5-0.8
		c0.2-0.2,0.5-0.4,0.8-0.6c0.3-0.1,0.7-0.2,1.1-0.2c0.6,0,1,0.1,1.3,0.4S211.5,53.7,211.5,54.1z M209.9,55.4
		c0.1-0.2,0.2-0.3,0.2-0.5c0.1-0.2,0.1-0.4,0.1-0.7c0-0.2-0.1-0.4-0.2-0.6c-0.1-0.1-0.3-0.2-0.5-0.2c-0.2,0-0.3,0-0.5,0.1
		c-0.1,0.1-0.3,0.2-0.4,0.4c-0.1,0.1-0.2,0.3-0.2,0.5c-0.1,0.2-0.1,0.4-0.1,0.7c0,0.3,0.1,0.5,0.2,0.6s0.3,0.2,0.5,0.2
		c0.2,0,0.3,0,0.4-0.1C209.7,55.7,209.8,55.6,209.9,55.4z"/>
	<path fill="#FFFFFF" d="M216.1,56.6h-1.3l-0.7-1.6h-0.6l-0.4,1.6h-1.3l0.9-3.9h1.3l-0.4,1.6c0.2,0,0.4,0,0.5-0.1s0.2-0.2,0.4-0.4
		c0-0.1,0.1-0.1,0.2-0.2c0.1-0.1,0.1-0.2,0.2-0.2c0.2-0.2,0.3-0.4,0.5-0.5c0.2-0.1,0.5-0.2,0.8-0.2c0.1,0,0.2,0,0.3,0
		c0.1,0,0.2,0,0.2,0l-0.2,1h-0.3c-0.1,0-0.2,0-0.3,0.1c-0.1,0.1-0.2,0.2-0.3,0.3c-0.1,0.2-0.2,0.3-0.2,0.3c0,0.1-0.1,0.1-0.2,0.2
		L216.1,56.6z"/>
</g>
</svg>
